dataintegration\excel_unify_0_1\excel_unify$TalendException.class
dataintegration\excel_unify_0_1\excel_unify$row6Struct.class
dataintegration\excel_unify_0_1\excel_unify$ContextProperties.class
dataintegration\excel_unify_0_1\excel_unify$1RegexUtil_tFileInputExcel_3.class
dataintegration\excel_unify_0_1\excel_unify$1RegexUtil_tFileInputExcel_2.class
dataintegration\excel_unify_0_1\excel_unify$1Var__tMap_2__Struct.class
dataintegration\excel_unify_0_1\excel_unify$out_2008Struct.class
dataintegration\excel_unify_0_1\excel_unify$out_2011Struct.class
dataintegration\excel_unify_0_1\excel_unify$1Var__tMap_1__Struct.class
dataintegration\excel_unify_0_1\excel_unify$out_2010Struct.class
dataintegration\excel_unify_0_1\excel_unify$row1Struct.class
dataintegration\excel_unify_0_1\excel_unify$1Var__tMap_3__Struct.class
dataintegration\excel_unify_0_1\excel_unify$row2Struct.class
dataintegration\excel_unify_0_1\excel_unify$1RegexUtil_tFileInputExcel_1.class
dataintegration\excel_unify_0_1\excel_unify$after_tFileInputExcel_1Struct.class
dataintegration\excel_unify_0_1\excel_unify$out_finalStruct.class
dataintegration\excel_unify_0_1\excel_unify$PropertiesWithType.class
dataintegration\excel_unify_0_1\excel_unify$row3Struct.class
dataintegration\excel_unify_0_1\excel_unify$row4Struct.class
dataintegration\excel_unify_0_1\excel_unify$1.class
dataintegration\excel_unify_0_1\excel_unify$1Var__tMap_4__Struct.class
dataintegration\excel_unify_0_1\excel_unify.class
dataintegration\excel_unify_0_1\excel_unify$1RegexUtil_tFileInputExcel_4.class
