dataintegration\fill_edd_1st_provenance_0_1\fill_edd_1st_provenance$row7Struct.class
dataintegration\fill_edd_1st_provenance_0_1\fill_edd_1st_provenance$1Var__tMap_4__Struct.class
dataintegration\fill_edd_1st_provenance_0_1\fill_edd_1st_provenance$PropertiesWithType.class
dataintegration\fill_edd_1st_provenance_0_1\fill_edd_1st_provenance$1KeyStruct_tUniqRow_6.class
dataintegration\fill_edd_1st_provenance_0_1\fill_edd_1st_provenance$TalendException.class
dataintegration\fill_edd_1st_provenance_0_1\fill_edd_1st_provenance.class
dataintegration\fill_edd_1st_provenance_0_1\fill_edd_1st_provenance$1.class
dataintegration\fill_edd_1st_provenance_0_1\fill_edd_1st_provenance$1RegexUtil_tFileInputExcel_1.class
dataintegration\fill_edd_1st_provenance_0_1\fill_edd_1st_provenance$ContextProperties.class
dataintegration\fill_edd_1st_provenance_0_1\fill_edd_1st_provenance$row1Struct.class
dataintegration\fill_edd_1st_provenance_0_1\fill_edd_1st_provenance$provStruct.class
