dataintegration\clean_database_0_1\clean_database.class
dataintegration\clean_database_0_1\clean_database$1.class
dataintegration\clean_database_0_1\clean_database$TalendException.class
dataintegration\clean_database_0_1\clean_database$ContextProperties.class
dataintegration\clean_database_0_1\clean_database$PropertiesWithType.class
