dataintegration\fill_edd_c_etudiant_0_1\fill_edd_c_etudiant$1KeyStruct_tUniqRow_1.class
dataintegration\fill_edd_c_etudiant_0_1\fill_edd_c_etudiant$1Var__tMap_1__Struct.class
dataintegration\fill_edd_c_etudiant_0_1\fill_edd_c_etudiant$after_tDBInput_2Struct.class
dataintegration\fill_edd_c_etudiant_0_1\fill_edd_c_etudiant$row1Struct.class
dataintegration\fill_edd_c_etudiant_0_1\fill_edd_c_etudiant$1Var__tMap_8__Struct.class
dataintegration\fill_edd_c_etudiant_0_1\fill_edd_c_etudiant$coursStruct.class
dataintegration\fill_edd_c_etudiant_0_1\fill_edd_c_etudiant$TalendException.class
dataintegration\fill_edd_c_etudiant_0_1\fill_edd_c_etudiant$etudiantStruct.class
dataintegration\fill_edd_c_etudiant_0_1\fill_edd_c_etudiant$1RegexUtil_tFileInputExcel_1.class
dataintegration\fill_edd_c_etudiant_0_1\fill_edd_c_etudiant$row3Struct.class
dataintegration\fill_edd_c_etudiant_0_1\fill_edd_c_etudiant$1Var__tMap_2__Struct.class
dataintegration\fill_edd_c_etudiant_0_1\fill_edd_c_etudiant$etudiantsStruct.class
dataintegration\fill_edd_c_etudiant_0_1\fill_edd_c_etudiant$PropertiesWithType.class
dataintegration\fill_edd_c_etudiant_0_1\fill_edd_c_etudiant$ContextProperties.class
dataintegration\fill_edd_c_etudiant_0_1\fill_edd_c_etudiant$1RegexUtil_tFileInputExcel_8.class
dataintegration\fill_edd_c_etudiant_0_1\fill_edd_c_etudiant$after_tFileInputExcel_8Struct.class
dataintegration\fill_edd_c_etudiant_0_1\fill_edd_c_etudiant.class
dataintegration\fill_edd_c_etudiant_0_1\fill_edd_c_etudiant$rattrapageStruct.class
dataintegration\fill_edd_c_etudiant_0_1\fill_edd_c_etudiant$1.class
dataintegration\fill_edd_c_etudiant_0_1\fill_edd_c_etudiant$out1Struct.class
dataintegration\fill_edd_c_etudiant_0_1\fill_edd_c_etudiant$out2Struct.class
dataintegration\fill_edd_c_etudiant_0_1\fill_edd_c_etudiant$1UtilClass_tAggregateRow_2.class
dataintegration\fill_edd_c_etudiant_0_1\fill_edd_c_etudiant$1AggOperationStruct_tAggregateRow_2.class
dataintegration\fill_edd_c_etudiant_0_1\fill_edd_c_etudiant$OnRowsEndStructtAggregateRow_2.class
dataintegration\fill_edd_c_etudiant_0_1\fill_edd_c_etudiant$convocationStruct.class
dataintegration\fill_edd_c_etudiant_0_1\fill_edd_c_etudiant$apogeeStruct.class
