dataintegration\fill_edd_1st_age_0_1\fill_edd_1st_age$row7Struct.class
dataintegration\fill_edd_1st_age_0_1\fill_edd_1st_age$1KeyStruct_tUniqRow_6.class
dataintegration\fill_edd_1st_age_0_1\fill_edd_1st_age$ageStruct.class
dataintegration\fill_edd_1st_age_0_1\fill_edd_1st_age$1Var__tMap_4__Struct.class
dataintegration\fill_edd_1st_age_0_1\fill_edd_1st_age.class
dataintegration\fill_edd_1st_age_0_1\fill_edd_1st_age$TalendException.class
dataintegration\fill_edd_1st_age_0_1\fill_edd_1st_age$PropertiesWithType.class
dataintegration\fill_edd_1st_age_0_1\fill_edd_1st_age$1.class
dataintegration\fill_edd_1st_age_0_1\fill_edd_1st_age$ContextProperties.class
dataintegration\fill_edd_1st_age_0_1\fill_edd_1st_age$row1Struct.class
dataintegration\fill_edd_1st_age_0_1\fill_edd_1st_age$1RegexUtil_tFileInputExcel_4.class
