dataintegration\fill_edd_all_dimensions_0_1\fill_edd_all_dimensions$PropertiesWithType.class
dataintegration\fill_edd_all_dimensions_0_1\fill_edd_all_dimensions$1.class
dataintegration\fill_edd_all_dimensions_0_1\fill_edd_all_dimensions$TalendException.class
dataintegration\fill_edd_all_dimensions_0_1\fill_edd_all_dimensions.class
dataintegration\fill_edd_all_dimensions_0_1\fill_edd_all_dimensions$ContextProperties.class
